{
  "data": [
    {
      "category": "3.10",
      "date": "2024-09",
      "downloads": 220
    },
    {
      "category": "3.10",
      "date": "2024-10",
      "downloads": 241
    },
    {
      "category": "3.10",
      "date": "2024-11",
      "downloads": 243
    },
    {
      "category": "3.10",
      "date": "2024-12",
      "downloads": 252
    },
    {
      "category": "3.10",
      "date": "2025-01",
      "downloads": 248
    },
    {
      "category": "3.10",
      "date": "2025-02",
      "downloads": 217
    },
    {
      "category": "3.10",
      "date": "2025-03",
      "downloads": 32
    },
    {
      "category": "3.11",
      "date": "2024-09",
      "downloads": 217
    },
    {
      "category": "3.11",
      "date": "2024-10",
      "downloads": 239
    },
    {
      "category": "3.11",
      "date": "2024-11",
      "downloads": 240
    },
    {
      "category": "3.11",
      "date": "2024-12",
      "downloads": 252
    },
    {
      "category": "3.11",
      "date": "2025-01",
      "downloads": 248
    },
    {
      "category": "3.11",
      "date": "2025-02",
      "downloads": 216
    },
    {
      "category": "3.11",
      "date": "2025-03",
      "downloads": 32
    },
    {
      "category": "3.12",
      "date": "2024-09",
      "downloads": 215
    },
    {
      "category": "3.12",
      "date": "2024-10",
      "downloads": 239
    },
    {
      "category": "3.12",
      "date": "2024-11",
      "downloads": 242
    },
    {
      "category": "3.12",
      "date": "2024-12",
      "downloads": 250
    },
    {
      "category": "3.12",
      "date": "2025-01",
      "downloads": 250
    },
    {
      "category": "3.12",
      "date": "2025-02",
      "downloads": 216
    },
    {
      "category": "3.12",
      "date": "2025-03",
      "downloads": 32
    },
    {
      "category": "3.13",
      "date": "2025-01",
      "downloads": 2
    },
    {
      "category": "3.8",
      "date": "2024-09",
      "downloads": 216
    },
    {
      "category": "3.8",
      "date": "2024-10",
      "downloads": 240
    },
    {
      "category": "3.8",
      "date": "2024-11",
      "downloads": 243
    },
    {
      "category": "3.8",
      "date": "2024-12",
      "downloads": 252
    },
    {
      "category": "3.8",
      "date": "2025-01",
      "downloads": 248
    },
    {
      "category": "3.8",
      "date": "2025-02",
      "downloads": 216
    },
    {
      "category": "3.8",
      "date": "2025-03",
      "downloads": 32
    },
    {
      "category": "3.9",
      "date": "2024-10",
      "downloads": 12
    },
    {
      "category": "null",
      "date": "2024-09",
      "downloads": 56
    },
    {
      "category": "null",
      "date": "2024-10",
      "downloads": 281
    },
    {
      "category": "null",
      "date": "2024-11",
      "downloads": 126
    },
    {
      "category": "null",
      "date": "2024-12",
      "downloads": 84
    },
    {
      "category": "null",
      "date": "2025-01",
      "downloads": 145
    },
    {
      "category": "null",
      "date": "2025-02",
      "downloads": 132
    },
    {
      "category": "null",
      "date": "2025-03",
      "downloads": 17
    }
  ],
  "package": "kiirastuli",
  "type": "python_minor_downloads"
}
